{
  "settings": [
    {
      "name": "NFT_SVC",
      "value": "http://localhost:30005"
    },
    {
      "name": "NFT_API_SVC",
      "value": "http://192.168.50.62:30003"
    },
    {
      "name": "NFT_MARKET_SVC",
      "value": "http://localhost:30013"
    }
  ]
}